<?xml version="1.0" encoding="UTF-8"?>
<svg width="12px" height="8px" viewBox="0 0 12 8" version="1.1" xmlns="http://www.w3.org/2000/svg" xmlns:xlink="http://www.w3.org/1999/xlink">
    <!-- Generator: Sketch 52.1 (67048) - http://www.bohemiancoding.com/sketch -->
    <title>Path 2</title>
    <desc>Created with Sketch.</desc>
    <g id="Page-1" stroke="none" stroke-width="1" fill="none" fill-rule="evenodd" opacity="0.9" stroke-linecap="round" stroke-linejoin="round">
        <g id="iron-test" transform="translate(-1155.000000, -1034.000000)" fill-rule="nonzero" stroke="#9B9B9B" stroke-width="2">
            <g id="game" transform="translate(135.000000, 630.000000)">
                <g id="item" transform="translate(900.000000, 158.000000)">
                    <g id="qty" transform="translate(20.000000, 210.000000)">
                        <polyline id="Path-2" points="101 43 106.111201 37 111 43"></polyline>
                    </g>
                </g>
            </g>
        </g>
    </g>
</svg>