<?xml version="1.0" encoding="UTF-8"?>
<svg width="50px" height="50px" viewBox="0 0 50 50" version="1.1" xmlns="http://www.w3.org/2000/svg" xmlns:xlink="http://www.w3.org/1999/xlink">
    <!-- Generator: Sketch 52.1 (67048) - http://www.bohemiancoding.com/sketch -->
    <title>Path</title>
    <desc>Created with Sketch.</desc>
    <g id="Page-1" stroke="none" stroke-width="1" fill="none" fill-rule="evenodd">
        <g id="home-page" transform="translate(-276.000000, -4693.000000)" fill="#25508D">
            <g id="footer" transform="translate(0.000000, 4658.000000)">
                <g id="nav" transform="translate(134.000000, 35.000000)">
                    <g id="fb">
                        <path d="M167,50 C153.192881,50 142,38.8071194 142,25 C142,11.1928806 153.192881,0 167,0 C180.807119,0 192,11.1928806 192,25 C192,38.8071194 180.807119,50 167,50 Z M170.008,8.862 C168.958,8.862 167.95,8.988 166.774,9.45 C164.38,10.416 163.162,12.684 163.162,16.212 L163.162,19.656 L159.802,19.656 L159.802,25.41 L163.162,25.41 L163.162,42 L170.008,42 L170.008,25.41 L174.67,25.41 L175.3,19.656 L170.008,19.656 L170.008,17.052 C170.008,16.254 170.092,15.666 170.302,15.33 C170.596,14.826 171.184,14.574 172.108,14.574 L175.216,14.574 L175.216,8.862 L170.008,8.862 Z" id="facebook-F"></path>
                    </g>
                </g>
            </g>
        </g>
    </g>
</svg>