<?xml version="1.0" encoding="UTF-8"?>
<svg width="130px" height="92px" viewBox="0 0 130 92" version="1.1" xmlns="http://www.w3.org/2000/svg" xmlns:xlink="http://www.w3.org/1999/xlink">
    <!-- Generator: Sketch 52.1 (67048) - http://www.bohemiancoding.com/sketch -->
    <title>Path 3</title>
    <desc>Created with Sketch.</desc>
    <defs>
        <linearGradient x1="22.27397%" y1="51.7453938%" x2="97.9593259%" y2="51.7453938%" id="linearGradient-1">
            <stop stop-color="#DBFFF8" stop-opacity="0" offset="0%"></stop>
            <stop stop-color="#DBFFF8" offset="100%"></stop>
        </linearGradient>
    </defs>
    <g id="Page-1" stroke="none" stroke-width="1" fill="none" fill-rule="evenodd">
        <g id="home-page" transform="translate(-565.000000, -1155.000000)" fill="url(#linearGradient-1)" fill-rule="nonzero">
            <g id="bebelac" transform="translate(135.000000, 803.000000)">
                <polygon id="Path-3" points="393 380.679418 520.135173 380.679418 520.135173 352 560 397.091576 520.135173 443.983464 520.135173 414.668289 393 414.668289"></polygon>
            </g>
        </g>
    </g>
</svg>