<?xml version="1.0" encoding="UTF-8"?>
<svg width="30px" height="23px" viewBox="0 0 30 23" version="1.1" xmlns="http://www.w3.org/2000/svg" xmlns:xlink="http://www.w3.org/1999/xlink">
    <!-- Generator: Sketch 52.1 (67048) - http://www.bohemiancoding.com/sketch -->
    <title>Group 4</title>
    <desc>Created with Sketch.</desc>
    <g id="Page-1" stroke="none" stroke-width="1" fill="none" fill-rule="evenodd" opacity="0.8">
        <g id="home-mobile" transform="translate(-28.000000, -43.000000)" fill="#4A4A4A" fill-rule="nonzero">
            <g id="header">
                <g id="Group-4" transform="translate(28.000000, 43.000000)">
                    <rect id="Rectangle-3-Copy-3" transform="translate(15.000000, 2.500000) scale(1, -1) translate(-15.000000, -2.500000) " x="0" y="0" width="30" height="5" rx="2"></rect>
                    <rect id="Rectangle-3-Copy-4" transform="translate(15.000000, 11.500000) scale(1, -1) translate(-15.000000, -11.500000) " x="0" y="9" width="30" height="5" rx="2"></rect>
                    <rect id="Rectangle-3-Copy-5" transform="translate(15.000000, 20.500000) scale(1, -1) translate(-15.000000, -20.500000) " x="0" y="18" width="30" height="5" rx="2"></rect>
                </g>
            </g>
        </g>
    </g>
</svg>