<?xml version="1.0" encoding="UTF-8"?>
<svg width="59px" height="59px" viewBox="0 0 59 59" version="1.1" xmlns="http://www.w3.org/2000/svg" xmlns:xlink="http://www.w3.org/1999/xlink">
    <!-- Generator: Sketch 52.1 (67048) - http://www.bohemiancoding.com/sketch -->
    <title>Combined Shape</title>
    <desc>Created with Sketch.</desc>
    <g id="Page-1" stroke="none" stroke-width="1" fill="none" fill-rule="evenodd">
        <g id="home-page" transform="translate(-986.000000, -1165.000000)" fill="#ABEBDE" fill-rule="nonzero">
            <g id="bebelac" transform="translate(135.000000, 803.000000)">
                <path d="M877,388 L877,365.6875 C877,363.65095 878.567003,362 880.5,362 C882.432997,362 884,363.65095 884,365.6875 L884,388 L906.3125,388 C908.34905,388 910,389.567003 910,391.5 C910,393.432997 908.34905,395 906.3125,395 L884,395 L884,417.3125 C884,419.34905 882.432997,421 880.5,421 C878.567003,421 877,419.34905 877,417.3125 L877,395 L854.6875,395 C852.65095,395 851,393.432997 851,391.5 C851,389.567003 852.65095,388 854.6875,388 L877,388 Z" id="Combined-Shape"></path>
            </g>
        </g>
    </g>
</svg>