<?xml version="1.0" encoding="UTF-8"?>
<svg width="13px" height="20px" viewBox="0 0 13 20" version="1.1" xmlns="http://www.w3.org/2000/svg" xmlns:xlink="http://www.w3.org/1999/xlink">
    <!-- Generator: Sketch 52.1 (67048) - http://www.bohemiancoding.com/sketch -->
    <title>Path 2 Copy</title>
    <desc>Created with Sketch.</desc>
    <g id="Page-1" stroke="none" stroke-width="1" fill="none" fill-rule="evenodd" opacity="0.9" stroke-linecap="round" stroke-linejoin="round">
        <g id="iron-test" transform="translate(-1214.000000, -1849.000000)" fill-rule="nonzero" stroke="#4A4A4A" stroke-width="2">
            <g id="game" transform="translate(135.000000, 630.000000)">
                <g id="btn" transform="translate(0.000000, 1189.000000)">
                    <polyline id="Path-2-Copy" transform="translate(1085.333333, 40.000000) scale(1, -1) rotate(-270.000000) translate(-1085.333333, -40.000000) " points="1077 45 1085.51867 35 1093.66667 45"></polyline>
                </g>
            </g>
        </g>
    </g>
</svg>