<?xml version="1.0" encoding="UTF-8"?>
<svg width="204px" height="218px" viewBox="0 0 204 218" version="1.1" xmlns="http://www.w3.org/2000/svg" xmlns:xlink="http://www.w3.org/1999/xlink">
    <!-- Generator: Sketch 52.2 (67145) - http://www.bohemiancoding.com/sketch -->
    <title>Group 6</title>
    <desc>Created with Sketch.</desc>
    <defs>
        <linearGradient x1="36.2768371%" y1="0%" x2="63.6540288%" y2="79.7840726%" id="linearGradient-1">
            <stop stop-color="#23367F" offset="0%"></stop>
            <stop stop-color="#2470AD" offset="100%"></stop>
        </linearGradient>
        <linearGradient x1="58.8260527%" y1="100%" x2="39.3463644%" y2="35.6300637%" id="linearGradient-2">
            <stop stop-color="#E0B700" offset="0%"></stop>
            <stop stop-color="#FCDD4C" offset="100%"></stop>
        </linearGradient>
        <path d="M98,200 C133.837288,200 165.181714,180.763769 182.271189,152.053395 C149.981922,131.990744 121.891526,115.306279 98,102 C98,52.5368441 98,19.8701775 98,4 C43.8760945,4 -4.26325641e-13,47.8760945 -4.26325641e-13,102 C-4.26325641e-13,156.123905 43.8760945,200 98,200 Z" id="path-3"></path>
        <filter x="-8.2%" y="-9.2%" width="119.8%" height="118.4%" filterUnits="objectBoundingBox" id="filter-4">
            <feOffset dx="3" dy="0" in="SourceAlpha" result="shadowOffsetOuter1"></feOffset>
            <feGaussianBlur stdDeviation="5.5" in="shadowOffsetOuter1" result="shadowBlurOuter1"></feGaussianBlur>
            <feColorMatrix values="0 0 0 0 0   0 0 0 0 0   0 0 0 0 0  0 0 0 0.186735734 0" type="matrix" in="shadowBlurOuter1"></feColorMatrix>
        </filter>
    </defs>
    <g id="Page-1" stroke="none" stroke-width="1" fill="none" fill-rule="evenodd">
        <g id="iron-test-result" transform="translate(-1022.000000, -1802.000000)">
            <g id="bebelac-red" transform="translate(135.000000, 1424.000000)">
                <g id="Group-2" transform="translate(895.000000, 385.000000)">
                    <g id="Group-6">
                        <path d="M175.520893,155.604197 C175.975509,122.312776 178.45178,90.8153733 182.949706,61.11199 C157.601818,44.280001 133.913216,26.0503711 111.883901,6.42310039 C98.3654322,21.6759756 89.0901613,47.1892369 89.0901613,69.1734655 C89.0901613,116.90784 127.786518,155.604197 175.520893,155.604197 Z" id="Oval-Copy" fill="url(#linearGradient-1)" fill-rule="nonzero" transform="translate(136.019934, 81.013649) rotate(-189.000000) translate(-136.019934, -81.013649) "></path>
                        <g id="Oval" fill-rule="nonzero">
                            <use fill="black" fill-opacity="1" filter="url(#filter-4)" xlink:href="#path-3"></use>
                            <use fill="url(#linearGradient-2)" xlink:href="#path-3"></use>
                        </g>
                        <text id="2" font-family="Bree-Bold, Bree" font-size="50" font-weight="bold" fill="#FFFFFF">
                            <tspan x="28.475" y="129">2</tspan>
                        </text>
                        <text id="3" font-family="Bree-Bold, Bree" font-size="50" font-weight="bold" fill="#FFFFFF">
                            <tspan x="68.1" y="163">3</tspan>
                        </text>
                        <path d="M74.438273,102 L47,159.925243" id="Line-3" stroke="#FFFFFF" stroke-width="5" stroke-linecap="round" fill-rule="nonzero"></path>
                    </g>
                </g>
            </g>
        </g>
    </g>
</svg>