<?xml version="1.0" encoding="UTF-8"?>
<svg width="71px" height="76px" viewBox="0 0 71 76" version="1.1" xmlns="http://www.w3.org/2000/svg" xmlns:xlink="http://www.w3.org/1999/xlink">
    <!-- Generator: Sketch 52.1 (67048) - http://www.bohemiancoding.com/sketch -->
    <title>Path 3</title>
    <desc>Created with Sketch.</desc>
    <defs>
        <linearGradient x1="22.27397%" y1="51.7453938%" x2="97.9593259%" y2="51.7453938%" id="linearGradient-1">
            <stop stop-color="#DBFFF8" stop-opacity="0" offset="0%"></stop>
            <stop stop-color="#DBFFF8" offset="100%"></stop>
        </linearGradient>
    </defs>
    <g id="Page-1" stroke="none" stroke-width="1" fill="none" fill-rule="evenodd">
        <g id="home-mobile" transform="translate(-152.000000, -1311.000000)" fill="url(#linearGradient-1)" fill-rule="nonzero">
            <g id="bebelac" transform="translate(20.000000, 918.000000)">
                <polygon id="Path-3" transform="translate(167.252347, 419.672314) rotate(-270.000000) translate(-167.252347, -419.672314) " points="118.580033 406.402544 185.368544 406.402544 185.368544 384.419967 215.92466 418.98235 185.368544 454.92466 185.368544 432.454779 118.580033 432.454779"></polygon>
            </g>
        </g>
    </g>
</svg>