<?xml version="1.0" encoding="UTF-8"?>
<svg width="160px" height="125px" viewBox="0 0 160 125" version="1.1" xmlns="http://www.w3.org/2000/svg" xmlns:xlink="http://www.w3.org/1999/xlink">
    <!-- Generator: Sketch 52.2 (67145) - http://www.bohemiancoding.com/sketch -->
    <title>Group</title>
    <desc>Created with Sketch.</desc>
    <g id="Page-1" stroke="none" stroke-width="1" fill="none" fill-rule="evenodd">
        <g id="Group" fill-rule="nonzero">
            <path d="M110,0.23046875 L160,28.40625 L160,114.625 C160,120.147847 155.522847,124.625 150,124.625 L10,124.625 C4.4771525,124.625 -7.95294686e-15,120.147847 -1.59872116e-14,114.625 L3.55271368e-15,27.3984375 L-1.42108547e-14,0.23046875 L110,0.23046875 Z" id="Rectangle-2-Copy-10" fill="#FF8B00" transform="translate(80.000000, 62.427734) scale(-1, 1) translate(-80.000000, -62.427734) "></path>
            <polygon id="Rectangle-2-Copy-8" fill="#FF9E29" transform="translate(80.000000, 14.199219) scale(-1, 1) translate(-80.000000, -14.199219) " points="110 0.23046875 160 28.1679687 0.297851562 28.1679687 1.42108547e-13 0.23046875"></polygon>
        </g>
    </g>
</svg>